src/heart_rate.vcd
$date
	Thu Aug 28 10:06:09 2025
$end
$version
	Icarus Verilog
$end
$timescale
	1ps
$end
$scope module filter_tb $end
$var wire 1 ! peak_detected $end
$var wire 32 " bpm [31:0] $end
$var wire 32 # avg_interval [31:0] $end
$var wire 13 $ Yout [12:0] $end
$var reg 8 % Xin [7:0] $end
$var reg 1 & clk $end
$var reg 1 ' rst $end
$var integer 32 ( ecg_value [31:0] $end
$var integer 32 ) file [31:0] $end
$var integer 32 * scan_result [31:0] $end
$scope module dut $end
$var wire 8 + Xin [7:0] $end
$var wire 1 & clk $end
$var wire 1 ' rst $end
$var wire 1 ! peak_detected $end
$var wire 32 , bpm [31:0] $end
$var wire 32 - avg_interval [31:0] $end
$var wire 13 . Yout [12:0] $end
$scope module RR_inst $end
$var wire 1 & clk $end
$var wire 1 / peak_rising_edge $end
$var wire 1 ' rst $end
$var wire 1 ! peak_detected $end
$var reg 32 0 avg_interval [31:0] $end
$var reg 16 1 current_time [15:0] $end
$var reg 4 2 interval_count [3:0] $end
$var reg 1 3 output_valid $end
$var reg 1 4 prev_peak_detected $end
$var reg 16 5 prev_time [15:0] $end
$var reg 32 6 sum_intervals [31:0] $end
$upscope $end
$scope module bpm_calc $end
$var wire 1 & clk $end
$var wire 32 7 rr_cycles [31:0] $end
$var wire 1 ' rst $end
$var reg 32 8 bpm [31:0] $end
$upscope $end
$scope module filter_inst $end
$var wire 8 9 Xin [7:0] $end
$var wire 13 : Yout [12:0] $end
$var wire 1 & clk $end
$var wire 1 ' rst $end
$var wire 13 ; sum_lvl_2 [12:0] $end
$var wire 13 < diff_out [12:0] $end
$var reg 9 = rect_out [8:0] $end
$var integer 32 > i [31:0] $end
$var integer 32 ? k [31:0] $end
$upscope $end
$scope module peak_detector_inst $end
$var wire 1 & clk $end
$var wire 1 ' rst $end
$var wire 13 @ transformed_signal [12:0] $end
$var reg 8 A index [7:0] $end
$var reg 13 B max_value [12:0] $end
$var reg 1 ! peak_detected $end
$var reg 13 C temp_max_value [12:0] $end
$var reg 13 D threshold [12:0] $end
$var integer 32 E j [31:0] $end
$upscope $end
$upscope $end
$upscope $end
$enddefinitions $end
#0
$dumpvars
b100000000 E
b0 D
bx C
b0 B
b0 A
bx @
b101 ?
bx >
b0 =
b0 <
bx ;
bx :
b0 9
b0 8
b0 7
b0 6
b0 5
04
03
b0 2
b0 1
b0 0
0/
bx .
b0 -
b0 ,
b0 +
bx *
b10000000000000000000000000000011 )
bx (
1'
0&
b0 %
bx $
b0 #
b0 "
0!
$end
#2500000000
b0 $
b0 .
b0 :
b0 @
b0 ;
b100000000 E
b101 ?
b10000 >
1&
#5000000000
0&
b1100 %
b1100 +
b1100 9
b1 *
b1100 (
#7500000000
b101 ?
b100000000 E
b10000 >
1&
#10000000000
b0 >
0&
b110 %
b110 +
b110 9
b110 (
0'
#12500000000
b1 1
b110010 D
b1 A
b100000000 E
b0 C
b0 >
1&
#15000000000
0&
b1 %
b1 +
b1 9
b1 (
#17500000000
b1111111111110 <
b10 A
b10 1
b100000000 E
b0 >
1&
#20000000000
0&
b0 %
b0 +
b0 9
b0 (
#22500000000
b1111111111111 <
b11 1
b11 A
b10 =
b100000000 E
b0 >
1&
#25000000000
0&
b111 %
b111 +
b111 9
b111 (
#27500000000
b1 <
b1 =
b100 A
b100 1
b10 $
b10 .
b10 :
b10 @
b10 ;
b100000000 E
b0 >
1&
#30000000000
0&
b100 %
b100 +
b100 9
b100 (
#32500000000
b1111111111111 <
b101 1
b101 A
b11 $
b11 .
b11 :
b11 @
b11 ;
b100000000 E
b0 >
1&
#35000000000
0&
b101 %
b101 +
b101 9
b101 (
#37500000000
b1111111111110 <
b110 A
b10 B
b110 1
b100 $
b100 .
b100 :
b100 @
b100 ;
b10 C
b100000000 E
b0 >
1&
#40000000000
0&
b1001 %
b1001 +
b1001 9
b1001 (
#42500000000
b0 <
b111 1
b110011 D
b11 B
b111 A
b10 =
b101 $
b101 .
b101 :
b101 @
b101 ;
b100000000 E
b11 C
b0 >
1&
#45000000000
0&
b1000 %
b1000 +
b1000 9
b1000 (
#47500000000
b1111111111111 <
b0 =
b1000 A
b100 B
b1000 1
b111 $
b111 .
b111 :
b111 @
b111 ;
b100000000 E
b100 C
b0 >
1&
#50000000000
0&
b10 %
b10 +
b10 9
b10 (
#52500000000
b1111111111110 <
b1001 1
b110100 D
b101 B
b1001 A
b1 =
b111 $
b111 .
b111 :
b111 @
b111 ;
b100000000 E
b101 C
b0 >
1&
#55000000000
0&
b11111000 %
b11111000 +
b11111000 9
b11111111111111111111111111111000 (
#57500000000
b1 <
b10 =
b1010 A
b111 B
b1010 1
b1000 $
b1000 .
b1000 :
b1000 @
b1000 ;
b100000000 E
b111 C
b0 >
1&
#60000000000
0&
b1001 %
b1001 +
b1001 9
b1001 (
#62500000000
b100 <
b1011 1
b110101 D
b1011 A
b1 =
b1010 $
b1010 .
b1010 :
b1010 @
b1010 ;
b100000000 E
b111 C
b0 >
1&
#65000000000
0&
b11111011 %
b11111011 +
b11111011 9
b11111111111111111111111111111011 (
#67500000000
b0 <
b100 =
b1100 A
b1000 B
b1100 1
b1011 $
b1011 .
b1011 :
b1011 @
b1011 ;
b100000000 E
b1000 C
b0 >
1&
#70000000000
0&
b11110010 %
b11110010 +
b11110010 9
b11111111111111111111111111110010 (
#72500000000
b1111111111110 <
b1101 1
b110110 D
b1010 B
b1101 A
b0 =
b1111 $
b1111 .
b1111 :
b1111 @
b1111 ;
b100000000 E
b1010 C
b0 >
1&
#75000000000
0&
b101 %
b101 +
b101 9
b101 (
#77500000000
b101 <
b10 =
b1110 A
b1011 B
b110111 D
b1110 1
b1111 $
b1111 .
b1111 :
b1111 @
b1111 ;
b100000000 E
b1011 C
b0 >
1&
#80000000000
0&
#82500000000
b0 <
b1111 1
b1111 B
b1111 A
b101 =
b10001 $
b10001 .
b10001 :
b10001 @
b10001 ;
b100000000 E
b1111 C
b0 >
1&
#85000000000
0&
b11 %
b11 +
b11 9
b11 (
#87500000000
b1111111111010 <
b0 =
b10000 A
b111001 D
b10000 1
b10110 $
b10110 .
b10110 :
b10110 @
b10110 ;
b100000000 E
b1111 C
b0 >
1&
#90000000000
0&
b1001 %
b1001 +
b1001 9
b1001 (
#92500000000
b1111111111110 <
b10001 1
b10001 B
b10001 A
b110 =
b10110 $
b10110 .
b10110 :
b10110 @
b10110 ;
b100000000 E
b10001 C
b0 >
1&
#95000000000
0&
b10011 %
b10011 +
b10011 9
b10011 (
#97500000000
b1111111111111 <
b10 =
b10010 A
b10110 B
b111010 D
b10010 1
b11100 $
b11100 .
b11100 :
b11100 @
b11100 ;
b100000000 E
b10110 C
b0 >
1&
#100000000000
0&
b1110 %
b1110 +
b1110 9
b1110 (
#102500000000
b1111111111011 <
b10011 1
b111101 D
b10011 A
b1 =
b11110 $
b11110 .
b11110 :
b11110 @
b11110 ;
b100000000 E
b10110 C
b0 >
1&
#105000000000
0&
b1010 %
b1010 +
b1010 9
b1010 (
#107500000000
b1111111111100 <
b101 =
b10100 A
b11100 B
b10100 1
b11101 $
b11101 .
b11101 :
b11101 @
b11101 ;
b100000000 E
b11100 C
b0 >
1&
#110000000000
0&
b1100 %
b1100 +
b1100 9
b1100 (
#112500000000
b1 <
b10101 1
b1000000 D
b11110 B
b10101 A
b100 =
b100001 $
b100001 .
b100001 :
b100001 @
b100001 ;
b100000000 E
b11110 C
b0 >
1&
#115000000000
0&
b0 %
b0 +
b0 9
b0 (
#117500000000
b1 <
b1 =
b10110 A
b1000001 D
b10110 1
b100100 $
b100100 .
b100100 :
b100100 @
b100100 ;
b100000000 E
b11110 C
b0 >
1&
#120000000000
0&
b11111111 %
b11111111 +
b11111111 9
b11111111111111111111111111111111 (
#122500000000
b10 <
b10111 1
b100001 B
b10111 A
b100100 $
b100100 .
b100100 :
b100100 @
b100100 ;
b100000000 E
b100001 C
b0 >
1&
#125000000000
0&
b0 %
b0 +
b0 9
b0 (
#127500000000
b100 <
b10 =
b11000 A
b100100 B
b1000010 D
b11000 1
b100011 $
b100011 .
b100011 :
b100011 @
b100011 ;
b100000000 E
b100100 C
b0 >
1&
#130000000000
0&
b11111110 %
b11111110 +
b11111110 9
b11111111111111111111111111111110 (
#132500000000
b1 <
b11001 1
b1000100 D
b11001 A
b100 =
b100101 $
b100101 .
b100101 :
b100101 @
b100101 ;
b100000000 E
b100100 C
b0 >
1&
#135000000000
0&
b10000 %
b10000 +
b10000 9
b10000 (
#137500000000
b0 <
b1 =
b11010 A
b11010 1
b101000 $
b101000 .
b101000 :
b101000 @
b101000 ;
b100000000 E
b100100 C
b0 >
1&
#140000000000
0&
b101 %
b101 +
b101 9
b101 (
#142500000000
b1111111111100 <
b11011 1
b100101 B
b11011 A
b0 =
b100111 $
b100111 .
b100111 :
b100111 @
b100111 ;
b100000000 E
b100101 C
b0 >
1&
#145000000000
0&
b111 %
b111 +
b111 9
b111 (
#147500000000
b1111111111100 <
b100 =
b11100 A
b101000 B
b11100 1
b100110 $
b100110 .
b100110 :
b100110 @
b100110 ;
b100000000 E
b101000 C
b0 >
1&
#150000000000
0&
b11111111 %
b11111111 +
b11111111 9
b11111111111111111111111111111111 (
#152500000000
b1 <
b11101 1
b1000110 D
b11101 A
b100110 $
b100110 .
b100110 :
b100110 @
b100110 ;
b100000000 E
b101000 C
b0 >
1&
#155000000000
0&
b11111100 %
b11111100 +
b11111100 9
b11111111111111111111111111111100 (
#157500000000
b10 <
b1 =
b11110 A
b11110 1
b101010 $
b101010 .
b101010 :
b101010 @
b101010 ;
b100000000 E
b101000 C
b0 >
1&
#160000000000
0&
b101 %
b101 +
b101 9
b101 (
#162500000000
b11 <
b11111 1
b11111 A
b10 =
b101001 $
b101001 .
b101001 :
b101001 @
b101001 ;
b100000000 E
b101000 C
b0 >
1&
#165000000000
0&
b11 %
b11 +
b11 9
b11 (
#167500000000
b1111111111111 <
b11 =
b100000 A
b101010 B
b100000 1
b100110 $
b100110 .
b100110 :
b100110 @
b100110 ;
b100000000 E
b101010 C
b0 >
1&
#170000000000
0&
b11111101 %
b11111101 +
b11111101 9
b11111111111111111111111111111101 (
#172500000000
b1111111111101 <
b100001 1
b1000111 D
b100001 A
b1 =
b101001 $
b101001 .
b101001 :
b101001 @
b101001 ;
b100000000 E
b101010 C
b0 >
1&
#175000000000
0&
b11110101 %
b11110101 +
b11110101 9
b11111111111111111111111111110101 (
#177500000000
b1 <
b11 =
b100010 A
b100010 1
b100100 $
b100100 .
b100100 :
b100100 @
b100100 ;
b100000000 E
b101010 C
b0 >
1&
#180000000000
0&
b1101 %
b1101 +
b1101 9
b1101 (
#182500000000
b100 <
b100011 1
b100011 A
b1 =
b100101 $
b100101 .
b100101 :
b100101 @
b100101 ;
b100000000 E
b101010 C
b0 >
1&
#185000000000
0&
b1100 %
b1100 +
b1100 9
b1100 (
#187500000000
b1111111111101 <
b100 =
b100100 A
b100100 1
b100101 $
b100101 .
b100101 :
b100101 @
b100101 ;
b100000000 E
b101010 C
b0 >
1&
#190000000000
0&
b11111000 %
b11111000 +
b11111000 9
b11111111111111111111111111111000 (
#192500000000
b1111111111000 <
b100101 1
b100101 A
b11 =
b100100 $
b100100 .
b100100 :
b100100 @
b100100 ;
b100000000 E
b101010 C
b0 >
1&
#195000000000
0&
b1 %
b1 +
b1 9
b1 (
#197500000000
b10 <
b1000 =
b100110 A
b100110 1
b100011 $
b100011 .
b100011 :
b100011 @
b100011 ;
b100000000 E
b101010 C
b0 >
1&
#200000000000
0&
b11110000 %
b11110000 +
b11110000 9
b11111111111111111111111111110000 (
#202500000000
b101 <
b100111 1
b100111 A
b10 =
b101010 $
b101010 .
b101010 :
b101010 @
b101010 ;
b100000000 E
b101010 C
b0 >
1&
#205000000000
0&
b11101010 %
b11101010 +
b11101010 9
b11111111111111111111111111101010 (
#207500000000
b11 <
b101 =
b101000 A
b101000 1
b101011 $
b101011 .
b101011 :
b101011 @
b101011 ;
b100000000 E
b101010 C
b0 >
1&
#210000000000
0&
b11101011 %
b11101011 +
b11101011 9
b11111111111111111111111111101011 (
#212500000000
b110 <
b101001 1
b101001 A
b11 =
b101110 $
b101110 .
b101110 :
b101110 @
b101110 ;
b100000000 E
b101010 C
b0 >
1&
#215000000000
0&
b11110110 %
b11110110 +
b11110110 9
b11111111111111111111111111110110 (
#217500000000
b100 <
b110 =
b101010 A
b101011 B
b101010 1
b101101 $
b101101 .
b101101 :
b101101 @
b101101 ;
b100000000 E
b101011 C
b0 >
1&
#220000000000
0&
b11111111 %
b11111111 +
b11111111 9
b11111111111111111111111111111111 (
#222500000000
b1111111111101 <
b101011 1
b101110 B
b101011 A
b100 =
b110010 $
b110010 .
b110010 :
b110010 @
b110010 ;
b100000000 E
b101110 C
b0 >
1&
#225000000000
0&
b11110111 %
b11110111 +
b11110111 9
b11111111111111111111111111110111 (
#227500000000
b1111111111001 <
b11 =
b101100 A
b1001001 D
b101100 1
b110110 $
b110110 .
b110110 :
b110110 @
b110110 ;
b100000000 E
b101110 C
b0 >
1&
#230000000000
0&
b10 %
b10 +
b10 9
b10 (
#232500000000
b1111111111101 <
b101101 1
b110010 B
b101101 A
b111 =
b110101 $
b110101 .
b110101 :
b110101 @
b110101 ;
b100000000 E
b110010 C
b0 >
1&
#235000000000
0&
b11111110 %
b11111110 +
b11111110 9
b11111111111111111111111111111110 (
#237500000000
b1111111111111 <
b11 =
b101110 A
b110110 B
b1001011 D
b101110 1
b111000 $
b111000 .
b111000 :
b111000 @
b111000 ;
b100000000 E
b110110 C
b0 >
1&
#240000000000
0&
b11001 %
b11001 +
b11001 9
b11001 (
#242500000000
b1111111111101 <
b101111 1
b1001101 D
b101111 A
b1 =
b111010 $
b111010 .
b111010 :
b111010 @
b111010 ;
b100000000 E
b110110 C
b0 >
1&
#245000000000
0&
b110111 %
b110111 +
b110111 9
b110111 (
#247500000000
b1111111111001 <
b11 =
b110000 A
b111000 B
b110000 1
b111001 $
b111001 .
b111001 :
b111001 @
b111001 ;
b100000000 E
b111000 C
b0 >
1&
#250000000000
0&
b1101110 %
b1101110 +
b1101110 9
b1101110 (
#252500000000
b1111111101110 <
b110001 1
b1001110 D
b111010 B
b110001 A
b111 =
b111001 $
b111001 .
b111001 :
b111001 @
b111001 ;
b100000000 E
b111010 C
b0 >
1&
#255000000000
0&
b1110110 %
b1110110 +
b1110110 9
b1110110 (
#257500000000
b1111111100011 <
b10010 =
b110010 A
b1001111 D
b110010 1
b111111 $
b111111 .
b111111 :
b111111 @
b111111 ;
b100000000 E
b111010 C
b0 >
1&
#260000000000
0&
b1100101 %
b1100101 +
b1100101 9
b1100101 (
#262500000000
b1111111100101 <
b110011 1
b110011 A
b11101 =
b1001110 $
b1001110 .
b1001110 :
b1001110 @
b1001110 ;
b100000000 E
b111010 C
b0 >
1&
#265000000000
0&
b111111 %
b111111 +
b111111 9
b111111 (
#267500000000
b1111111111010 <
b11011 =
b110100 A
b111111 B
b110100 1
b1101010 $
b1101010 .
b1101010 :
b1101010 @
b1101010 ;
b100000000 E
b111111 C
b0 >
1&
#270000000000
0&
b10110 %
b10110 +
b10110 9
b10110 (
#272500000000
1/
b1110 <
b110101 1
1!
b1010001 D
b1001110 B
b110101 A
b110 =
b10000001 $
b10000001 .
b10000001 :
b10000001 @
b10000001 ;
b100000000 E
b1001110 C
b0 >
1&
#275000000000
0&
b11111010 %
b11111010 +
b11111010 9
b11111111111111111111111111111010 (
#277500000000
b11010 <
0/
b1110 =
b110110 A
b1101010 B
b1011001 D
b110101 5
14
b110110 1
b10000100 $
b10000100 .
b10000100 :
b10000100 @
b10000100 ;
b100000000 E
b1101010 C
b0 >
1&
#280000000000
0&
b11100000 %
b11100000 +
b11100000 9
b11111111111111111111111111100000 (
#282500000000
b11011 <
b110111 1
b1100111 D
b10000001 B
b110111 A
b11010 =
b10001010 $
b10001010 .
b10001010 :
b10001010 @
b10001010 ;
b100000000 E
b10000001 C
b0 >
1&
#285000000000
0&
b11100001 %
b11100001 +
b11100001 9
b11111111111111111111111111100001 (
#287500000000
b10110 <
b11011 =
b111000 A
b10000100 B
b1110010 D
b111000 1
b10100010 $
b10100010 .
b10100010 :
b10100010 @
b10100010 ;
b100000000 E
b10000100 C
b0 >
1&
#290000000000
0&
b11110010 %
b11110010 +
b11110010 9
b11111111111111111111111111110010 (
#292500000000
b1101 <
b111001 1
b1110100 D
b10001010 B
b111001 A
b10110 =
b10111000 $
b10111000 .
b10111000 :
b10111000 @
b10111000 ;
b100000000 E
b10001010 C
b0 >
1&
#295000000000
0&
b11111011 %
b11111011 +
b11111011 9
b11111111111111111111111111111011 (
#297500000000
b1111111111110 <
b1101 =
b111010 A
b10100010 B
b1110111 D
b111010 1
b11001011 $
b11001011 .
b11001011 :
b11001011 @
b11001011 ;
b100000000 E
b10100010 C
b0 >
1&
#300000000000
0&
#302500000000
b1111111110111 <
b111011 1
b10000011 D
b10111000 B
b111011 A
b10 =
b11010010 $
b11010010 .
b11010010 :
b11010010 @
b11010010 ;
b100000000 E
b10111000 C
b0 >
1&
#305000000000
0&
b1101 %
b1101 +
b1101 9
b1101 (
#307500000000
b1111111111010 <
b1001 =
b111100 A
b11001011 B
b10001110 D
b111100 1
b11010000 $
b11010000 .
b11010000 :
b11010000 @
b11010000 ;
b100000000 E
b11001011 C
b0 >
1&
#310000000000
0&
b1001 %
b1001 +
b1001 9
b1001 (
#312500000000
b1111111111010 <
b111101 1
b10010111 D
b11010010 B
b111101 A
b110 =
b11010110 $
b11010110 .
b11010110 :
b11010110 @
b11010110 ;
b100000000 E
b11010010 C
b0 >
1&
#315000000000
0&
b10010 %
b10010 +
b10010 9
b10010 (
#317500000000
b1111111111010 <
b111110 A
b10011011 D
b111110 1
b11010101 $
b11010101 .
b11010101 :
b11010101 @
b11010101 ;
b100000000 E
b11010010 C
b0 >
1&
#320000000000
0&
#322500000000
b1111111111101 <
b111111 1
b11010110 B
b111111 A
b11011000 $
b11011000 .
b11011000 :
b11011000 @
b11011000 ;
b100000000 E
b11010110 C
b0 >
1&
#325000000000
0&
b111 %
b111 +
b111 9
b111 (
#327500000000
b1111111111101 <
b11 =
b1000000 A
b10011101 D
b1000000 1
b11011101 $
b11011101 .
b11011101 :
b11011101 @
b11011101 ;
b100000000 E
b11010110 C
b0 >
1&
#330000000000
0&
b10010 %
b10010 +
b10010 9
b10010 (
#332500000000
b1 <
b1000001 1
b11011000 B
b1000001 A
b11011101 $
b11011101 .
b11011101 :
b11011101 @
b11011101 ;
b100000000 E
b11011000 C
b0 >
1&
#335000000000
0&
b100110 %
b100110 +
b100110 9
b100110 (
#337500000000
b1 <
b1 =
b1000010 A
b11011101 B
b10011110 D
b1000010 1
b11011001 $
b11011001 .
b11011001 :
b11011001 @
b11011001 ;
b100000000 E
b11011101 C
b0 >
1&
#340000000000
0&
b11111 %
b11111 +
b11111 9
b11111 (
#342500000000
b1111111111000 <
b1000011 1
b10100000 D
b1000011 A
b11001000 $
b11001000 .
b11001000 :
b11001000 @
b11001000 ;
b100000000 E
b11011101 C
b0 >
1&
#345000000000
0&
#347500000000
b1111111111000 <
b1000 =
b1000100 A
b1000100 1
b10101100 $
b10101100 .
b10101100 :
b10101100 @
b10101100 ;
b100000000 E
b11011101 C
b0 >
1&
#350000000000
0&
b100110 %
b100110 +
b100110 9
b100110 (
#352500000000
b0 <
b1000101 1
b1000101 A
b10011001 $
b10011001 .
b10011001 :
b10011001 @
b10011001 ;
b100000000 E
b11011101 C
b0 >
1&
#355000000000
0&
b101000 %
b101000 +
b101000 9
b101000 (
#357500000000
b1111111111111 <
b0 =
b1000110 A
0!
b1000110 1
b10011011 $
b10011011 .
b10011011 :
b10011011 @
b10011011 ;
b100000000 E
b11011101 C
b0 >
1&
#360000000000
0&
b100000 %
b100000 +
b100000 9
b100000 (
#362500000000
b1111111111100 <
04
b1000111 1
b1000111 A
b1 =
b10001101 $
b10001101 .
b10001101 :
b10001101 @
b10001101 ;
b100000000 E
b11011101 C
b0 >
1&
#365000000000
0&
b100100 %
b100100 +
b100100 9
b100100 (
#367500000000
b0 <
b100 =
b1001000 A
b1001000 1
b1110100 $
b1110100 .
b1110100 :
b1110100 @
b1110100 ;
b100000000 E
b11011101 C
b0 >
1&
#370000000000
0&
b11000 %
b11000 +
b11000 9
b11000 (
#372500000000
b1 <
b1001001 1
b1001001 A
b0 =
b1011101 $
b1011101 .
b1011101 :
b1011101 @
b1011101 ;
b100000000 E
b11011101 C
b0 >
1&
#375000000000
0&
#377500000000
b10 <
b1 =
b1001010 A
b1001010 1
b1000111 $
b1000111 .
b1000111 :
b1000111 @
b1000111 ;
b100000000 E
b11011101 C
b0 >
1&
#380000000000
0&
b10101 %
b10101 +
b10101 9
b10101 (
#382500000000
b100 <
b1001011 1
b1001011 A
b10 =
b111011 $
b111011 .
b111011 :
b111011 @
b111011 ;
b100000000 E
b11011101 C
b0 >
1&
#385000000000
0&
b10110 %
b10110 +
b10110 9
b10110 (
#387500000000
b10 <
b100 =
b1001100 A
b1001100 1
b111011 $
b111011 .
b111011 :
b111011 @
b111011 ;
b100000000 E
b11011101 C
b0 >
1&
#390000000000
0&
b11101 %
b11101 +
b11101 9
b11101 (
#392500000000
b0 <
b1001101 1
b1001101 A
b10 =
b110110 $
b110110 .
b110110 :
b110110 @
b110110 ;
b100000000 E
b11011101 C
b0 >
1&
#395000000000
0&
b10001 %
b10001 +
b10001 9
b10001 (
#397500000000
b1111111111110 <
b0 =
b1001110 A
b1001110 1
b110010 $
b110010 .
b110010 :
b110010 @
b110010 ;
b100000000 E
b11011101 C
b0 >
1&
#400000000000
0&
b101 %
b101 +
b101 9
b101 (
#402500000000
b0 <
b1001111 1
b1001111 A
b10 =
b101100 $
b101100 .
b101100 :
b101100 @
b101100 ;
b100000000 E
b11011101 C
b0 >
1&
#405000000000
0&
b11111101 %
b11111101 +
b11111101 9
b11111111111111111111111111111101 (
#407500000000
b110 <
b0 =
b1010000 A
b1010000 1
b101000 $
b101000 .
b101000 :
b101000 @
b101000 ;
b100000000 E
b11011101 C
b0 >
1&
#410000000000
0&
b1 %
b1 +
b1 9
b1 (
#412500000000
b1000 <
b1010001 1
b1010001 A
b110 =
b100101 $
b100101 .
b100101 :
b100101 @
b100101 ;
b100000000 E
b11011101 C
b0 >
1&
#415000000000
0&
b1101 %
b1101 +
b1101 9
b1101 (
#417500000000
b11 <
b1000 =
b1010010 A
b1010010 1
b101000 $
b101000 .
b101000 :
b101000 @
b101000 ;
b100000000 E
b11011101 C
b0 >
1&
#420000000000
0&
b110 %
b110 +
b110 9
b110 (
#422500000000
b1111111111100 <
b1010011 1
b1010011 A
b11 =
b101111 $
b101111 .
b101111 :
b101111 @
b101111 ;
b100000000 E
b11011101 C
b0 >
1&
#425000000000
0&
b11111011 %
b11111011 +
b11111011 9
b11111111111111111111111111111011 (
#427500000000
b1111111111100 <
b100 =
b1010100 A
b1010100 1
b110001 $
b110001 .
b110001 :
b110001 @
b110001 ;
b100000000 E
b11011101 C
b0 >
1&
#430000000000
0&
b1001 %
b1001 +
b1001 9
b1001 (
#432500000000
b11 <
b1010101 1
b1010101 A
b101101 $
b101101 .
b101101 :
b101101 @
b101101 ;
b100000000 E
b11011101 C
b0 >
1&
#435000000000
0&
b11111100 %
b11111100 +
b11111100 9
b11111111111111111111111111111100 (
#437500000000
b1 <
b11 =
b1010110 A
b1010110 1
b101001 $
b101001 .
b101001 :
b101001 @
b101001 ;
b100000000 E
b11011101 C
b0 >
1&
#440000000000
0&
b0 %
b0 +
b0 9
b0 (
#442500000000
b1111111111111 <
b1010111 1
b1010111 A
b1 =
b101100 $
b101100 .
b101100 :
b101100 @
b101100 ;
b100000000 E
b11011101 C
b0 >
1&
#445000000000
0&
b11111100 %
b11111100 +
b11111100 9
b11111111111111111111111111111100 (
#447500000000
b10 <
b1011000 A
b1011000 1
b101100 $
b101100 .
b101100 :
b101100 @
b101100 ;
b100000000 E
b11011101 C
b0 >
1&
#450000000000
0&
b0 %
b0 +
b0 9
b0 (
#452500000000
b1 <
b1011001 1
b1011001 A
b10 =
b101001 $
b101001 .
b101001 :
b101001 @
b101001 ;
b100000000 E
b11011101 C
b0 >
1&
#455000000000
0&
b11111100 %
b11111100 +
b11111100 9
b11111111111111111111111111111100 (
#457500000000
b0 <
b1 =
b1011010 A
b1011010 1
b101011 $
b101011 .
b101011 :
b101011 @
b101011 ;
b100000000 E
b11011101 C
b0 >
1&
#460000000000
0&
#462500000000
b1011011 1
b1011011 A
b0 =
b101011 $
b101011 .
b101011 :
b101011 @
b101011 ;
b100000000 E
b11011101 C
b0 >
1&
#465000000000
0&
b11111011 %
b11111011 +
b11111011 9
b11111111111111111111111111111011 (
#467500000000
b1 <
b1011100 A
b1011100 1
b101001 $
b101001 .
b101001 :
b101001 @
b101001 ;
b100000000 E
b11011101 C
b0 >
1&
#470000000000
0&
b1100 %
b1100 +
b1100 9
b1100 (
#472500000000
b0 <
b1011101 1
b1011101 A
b1 =
b100101 $
b100101 .
b100101 :
b100101 @
b100101 ;
b100000000 E
b11011101 C
b0 >
1&
#475000000000
0&
b11110100 %
b11110100 +
b11110100 9
b11111111111111111111111111110100 (
#477500000000
b1111111111100 <
b0 =
b1011110 A
b1011110 1
b100100 $
b100100 .
b100100 :
b100100 @
b100100 ;
b100000000 E
b11011101 C
b0 >
1&
#480000000000
0&
b110 %
b110 +
b110 9
b110 (
#482500000000
b1111111111111 <
b1011111 1
b1011111 A
b100 =
b100100 $
b100100 .
b100100 :
b100100 @
b100100 ;
b100000000 E
b11011101 C
b0 >
1&
#485000000000
0&
b11111101 %
b11111101 +
b11111101 9
b11111111111111111111111111111101 (
#487500000000
b10 <
b1 =
b1100000 A
b1100000 1
b100110 $
b100110 .
b100110 :
b100110 @
b100110 ;
b100000000 E
b11011101 C
b0 >
1&
#490000000000
0&
b11 %
b11 +
b11 9
b11 (
#492500000000
b1111111111110 <
b1100001 1
b1100001 A
b10 =
b100111 $
b100111 .
b100111 :
b100111 @
b100111 ;
b100000000 E
b11011101 C
b0 >
1&
#495000000000
0&
b110 %
b110 +
b110 9
b110 (
#497500000000
b1111111111111 <
b1100010 A
b1100010 1
b100011 $
b100011 .
b100011 :
b100011 @
b100011 ;
b100000000 E
b11011101 C
b0 >
1&
#500000000000
0&
b11110111 %
b11110111 +
b11110111 9
b11111111111111111111111111110111 (
#502500000000
b1111111111110 <
b1100011 1
b1100011 A
b1 =
b11101 $
b11101 .
b11101 :
b11101 @
b11101 ;
b100000000 E
b11011101 C
b0 >
1&
#505000000000
0&
b101 %
b101 +
b101 9
b101 (
#507500000000
b1 <
b10 =
b1100100 A
b1100100 1
b11011 $
b11011 .
b11011 :
b11011 @
b11011 ;
b100000000 E
b11011101 C
b0 >
1&
#510000000000
0&
b11111110 %
b11111110 +
b11111110 9
b11111111111111111111111111111110 (
#512500000000
b1 <
b1100101 1
b1100101 A
b1 =
b11001 $
b11001 .
b11001 :
b11001 @
b11001 ;
b100000000 E
b11011101 C
b0 >
1&
#515000000000
0&
b11111010 %
b11111010 +
b11111010 9
b11111111111111111111111111111010 (
#517500000000
b1111111111110 <
b1100110 A
b1100110 1
b10110 $
b10110 .
b10110 :
b10110 @
b10110 ;
b100000000 E
b11011101 C
b0 >
1&
#520000000000
0&
b0 %
b0 +
b0 9
b0 (
#522500000000
b1 <
b1100111 1
b1100111 A
b10 =
b10100 $
b10100 .
b10100 :
b10100 @
b10100 ;
b100000000 E
b11011101 C
b0 >
1&
#525000000000
0&
b11111111 %
b11111111 +
b11111111 9
b11111111111111111111111111111111 (
#527500000000
b0 <
b1 =
b1101000 A
b1101000 1
b10101 $
b10101 .
b10101 :
b10101 @
b10101 ;
b100000000 E
b11011101 C
b0 >
1&
#530000000000
0&
b10 %
b10 +
b10 9
b10 (
#532500000000
b1111111111110 <
b1101001 1
b1101001 A
b0 =
b10101 $
b10101 .
b10101 :
b10101 @
b10101 ;
b100000000 E
b11011101 C
b0 >
1&
#535000000000
0&
#537500000000
b10 =
b1101010 A
b1101010 1
b10011 $
b10011 .
b10011 :
b10011 @
b10011 ;
b100000000 E
b11011101 C
b0 >
1&
#540000000000
0&
b11111110 %
b11111110 +
b11111110 9
b11111111111111111111111111111110 (
#542500000000
b1111111111111 <
b1101011 1
b1101011 A
b10100 $
b10100 .
b10100 :
b10100 @
b10100 ;
b100000000 E
b11011101 C
b0 >
1&
#545000000000
0&
b101 %
b101 +
b101 9
b101 (
#547500000000
b0 <
b1 =
b1101100 A
b1101100 1
b10110 $
b10110 .
b10110 :
b10110 @
b10110 ;
b100000000 E
b11011101 C
b0 >
1&
#550000000000
0&
b10 %
b10 +
b10 9
b10 (
#552500000000
b1111111111111 <
b1101101 1
b1101101 A
b0 =
b10111 $
b10111 .
b10111 :
b10111 @
b10111 ;
b100000000 E
b11011101 C
b0 >
1&
#555000000000
0&
b1000 %
b1000 +
b1000 9
b1000 (
#557500000000
b1111111111110 <
b1 =
b1101110 A
b1101110 1
b10110 $
b10110 .
b10110 :
b10110 @
b10110 ;
b100000000 E
b11011101 C
b0 >
1&
#560000000000
0&
b1001 %
b1001 +
b1001 9
b1001 (
#562500000000
b1101111 1
b1101111 A
b10 =
b10111 $
b10111 .
b10111 :
b10111 @
b10111 ;
b100000000 E
b11011101 C
b0 >
1&
#565000000000
0&
b11111101 %
b11111101 +
b11111101 9
b11111111111111111111111111111101 (
#567500000000
b1111111111101 <
b1110000 A
b1110000 1
b10101 $
b10101 .
b10101 :
b10101 @
b10101 ;
b100000000 E
b11011101 C
b0 >
1&
#570000000000
0&
b11111110 %
b11111110 +
b11111110 9
b11111111111111111111111111111110 (
